{
	"info": {
		"_postman_id": "cc2cdec9-89bc-4cdf-8355-16e822aa42cd",
		"name": "mias",
		"schema": "https://schema.getpostman.com/json/collection/v2.1.0/collection.json"
	},
	"item": [
		{
			"name": "localhost:3000/hack-ibc/v1/users",
			"request": {
				"method": "GET",
				"header": [],
				"body": {
					"mode": "raw",
					"raw": ""
				},
				"url": {
					"raw": "localhost:3000/hack-ibc/v1/users",
					"host": [
						"localhost"
					],
					"port": "3000",
					"path": [
						"hack-ibc",
						"v1",
						"users"
					]
				}
			},
			"response": []
		},
		{
			"name": "localhost:3000/hack-ibc/v1/users/115/cuentas/",
			"request": {
				"method": "GET",
				"header": [
					{
						"key": "autorizacion",
						"value": "eyJhbGciOiJIUzI1NiIsInR5cCI6IkpXVCJ9.eyJpZCI6MTE1LCJ1c2VybmFtZSI6InBjYW50ZXJvQHZlcmEuY29tLnV5Iiwicm9sIjoiY3VzdG9tZXIiLCJpYXQiOjE1NDA3NjUzODcsImV4cCI6MTU0MDc4MzM4N30.3Y8NTwT3s2TENmJEFA3vhGM_stuWrf258Ag1wY312BA",
						"type": "text"
					}
				],
				"body": {
					"mode": "raw",
					"raw": ""
				},
				"url": {
					"raw": "localhost:3000/hack-ibc/v1/users/115/cuentas/",
					"host": [
						"localhost"
					],
					"port": "3000",
					"path": [
						"hack-ibc",
						"v1",
						"users",
						"115",
						"cuentas",
						""
					]
				}
			},
			"response": []
		},
		{
			"name": "localhost:3000/hack-ibc/v1/users/115/cuentas/28/movimientos",
			"request": {
				"method": "GET",
				"header": [
					{
						"key": "autorizacion",
						"value": "eyJhbGciOiJIUzI1NiIsInR5cCI6IkpXVCJ9.eyJpZCI6MTE1LCJ1c2VybmFtZSI6InBjYW50ZXJvQHZlcmEuY29tLnV5Iiwicm9sIjoiY3VzdG9tZXIiLCJpYXQiOjE1NDA3NjUzODcsImV4cCI6MTU0MDc4MzM4N30.3Y8NTwT3s2TENmJEFA3vhGM_stuWrf258Ag1wY312BA",
						"type": "text"
					}
				],
				"body": {
					"mode": "raw",
					"raw": ""
				},
				"url": {
					"raw": "localhost:3000/hack-ibc/v1/users/115/cuentas/28/movimientos",
					"host": [
						"localhost"
					],
					"port": "3000",
					"path": [
						"hack-ibc",
						"v1",
						"users",
						"115",
						"cuentas",
						"28",
						"movimientos"
					]
				}
			},
			"response": []
		},
		{
			"name": "localhost:3000/hack-ibc/v1/users",
			"request": {
				"method": "POST",
				"header": [
					{
						"key": "Content-Type",
						"name": "Content-Type",
						"value": "application/json",
						"type": "text"
					}
				],
				"body": {
					"mode": "raw",
					"raw": "{\n        \"first_name\": \"Iron\",\n        \"last_name\": \"Man\",\n        \"email\": \"ironman@vera.com.uy\",\n        \"password\": \"123456\"\n }"
				},
				"url": {
					"raw": "localhost:3000/hack-ibc/v1/users",
					"host": [
						"localhost"
					],
					"port": "3000",
					"path": [
						"hack-ibc",
						"v1",
						"users"
					]
				}
			},
			"response": []
		},
		{
			"name": "localhost:3000/hack-ibc/v1/users/115/cuentas/31",
			"request": {
				"method": "DELETE",
				"header": [
					{
						"key": "autorizacion",
						"value": "eyJhbGciOiJIUzI1NiIsInR5cCI6IkpXVCJ9.eyJpZCI6MTE1LCJ1c2VybmFtZSI6InBjYW50ZXJvQHZlcmEuY29tLnV5Iiwicm9sIjoiY3VzdG9tZXIiLCJpYXQiOjE1NDA3NjUzODcsImV4cCI6MTU0MDc4MzM4N30.3Y8NTwT3s2TENmJEFA3vhGM_stuWrf258Ag1wY312BA",
						"type": "text"
					}
				],
				"body": {
					"mode": "raw",
					"raw": ""
				},
				"url": {
					"raw": "localhost:3000/hack-ibc/v1/users/115/cuentas/31",
					"host": [
						"localhost"
					],
					"port": "3000",
					"path": [
						"hack-ibc",
						"v1",
						"users",
						"115",
						"cuentas",
						"31"
					]
				}
			},
			"response": []
		},
		{
			"name": "localhost:3000/hack-ibc/v1/users/114",
			"request": {
				"method": "PUT",
				"header": [
					{
						"key": "Content-Type",
						"name": "Content-Type",
						"value": "application/json",
						"type": "text"
					}
				],
				"body": {
					"mode": "raw",
					"raw": "{\"last_name\": \"Camal\"}\n"
				},
				"url": {
					"raw": "localhost:3000/hack-ibc/v1/users/114",
					"host": [
						"localhost"
					],
					"port": "3000",
					"path": [
						"hack-ibc",
						"v1",
						"users",
						"114"
					]
				}
			},
			"response": []
		},
		{
			"name": "localhost:3000/hack-ibc/v1/login",
			"request": {
				"method": "POST",
				"header": [
					{
						"key": "Content-Type",
						"name": "Content-Type",
						"value": "application/json",
						"type": "text"
					}
				],
				"body": {
					"mode": "raw",
					"raw": "{\n        \"email\": \"pcantero@vera.com.uy\",\n        \"password\": \"123456\"\n}"
				},
				"url": {
					"raw": "localhost:3000/hack-ibc/v1/login",
					"host": [
						"localhost"
					],
					"port": "3000",
					"path": [
						"hack-ibc",
						"v1",
						"login"
					]
				}
			},
			"response": []
		},
		{
			"name": "localhost:3000/hack-ibc/v1/logout",
			"request": {
				"method": "POST",
				"header": [
					{
						"key": "Content-Type",
						"name": "Content-Type",
						"value": "application/json",
						"type": "text"
					},
					{
						"key": "autorizacion",
						"value": "eyJhbGciOiJIUzI1NiIsInR5cCI6IkpXVCJ9.eyJpZCI6MTE1LCJ1c2VybmFtZSI6InBjYW50ZXJvQHZlcmEuY29tLnV5Iiwicm9sIjoiY3VzdG9tZXIiLCJpYXQiOjE1NDA2ODM1MDAsImV4cCI6MTU0MDcwMTUwMH0.swWbyaKsqhZEKlmO0B8dIUnSZaLW-CZ8qH1PAti92a0",
						"type": "text"
					}
				],
				"body": {
					"mode": "raw",
					"raw": ""
				},
				"url": {
					"raw": "localhost:3000/hack-ibc/v1/logout",
					"host": [
						"localhost"
					],
					"port": "3000",
					"path": [
						"hack-ibc",
						"v1",
						"logout"
					]
				}
			},
			"response": []
		},
		{
			"name": "localhost:3000/hack-ibc/v1/cambiacontra",
			"request": {
				"method": "PUT",
				"header": [
					{
						"key": "Content-Type",
						"name": "Content-Type",
						"value": "application/json",
						"type": "text"
					},
					{
						"key": "autorizacion",
						"value": "eyJhbGciOiJIUzI1NiIsInR5cCI6IkpXVCJ9.eyJpZCI6MTE1LCJ1c2VybmFtZSI6InBjYW50ZXJvQHZlcmEuY29tLnV5Iiwicm9sIjoiY3VzdG9tZXIiLCJpYXQiOjE1NDA3NjUzODcsImV4cCI6MTU0MDc4MzM4N30.3Y8NTwT3s2TENmJEFA3vhGM_stuWrf258Ag1wY312BA",
						"type": "text"
					}
				],
				"body": {
					"mode": "raw",
					"raw": "{\n        \"passwordOld\": \"4ff4cd70\",\n        \"passwordNew\": \"123456\"\n        \n}"
				},
				"url": {
					"raw": "localhost:3000/hack-ibc/v1/cambiacontra",
					"host": [
						"localhost"
					],
					"port": "3000",
					"path": [
						"hack-ibc",
						"v1",
						"cambiacontra"
					]
				}
			},
			"response": []
		},
		{
			"name": "localhost:3000/hack-ibc/v1/restacontra",
			"request": {
				"method": "PUT",
				"header": [
					{
						"key": "Content-Type",
						"name": "Content-Type",
						"value": "application/json",
						"type": "text"
					}
				],
				"body": {
					"mode": "raw",
					"raw": "{\n\t\"email\" : \"pcantero@vera.com.uy\"\n}"
				},
				"url": {
					"raw": "localhost:3000/hack-ibc/v1/restacontra",
					"host": [
						"localhost"
					],
					"port": "3000",
					"path": [
						"hack-ibc",
						"v1",
						"restacontra"
					]
				}
			},
			"response": []
		},
		{
			"name": "localhost:3000/hack-ibc/v1/users/115/cuentas",
			"request": {
				"method": "POST",
				"header": [
					{
						"key": "Content-Type",
						"name": "Content-Type",
						"value": "application/json",
						"type": "text"
					},
					{
						"key": "autorizacion",
						"value": "eyJhbGciOiJIUzI1NiIsInR5cCI6IkpXVCJ9.eyJpZCI6MTE1LCJ1c2VybmFtZSI6InBjYW50ZXJvQHZlcmEuY29tLnV5Iiwicm9sIjoiY3VzdG9tZXIiLCJpYXQiOjE1NDA3NjUzODcsImV4cCI6MTU0MDc4MzM4N30.3Y8NTwT3s2TENmJEFA3vhGM_stuWrf258Ag1wY312BA",
						"type": "text"
					}
				],
				"body": {
					"mode": "raw",
					"raw": "{\n            \"iban\" : \"FR50 2374 1234 5678 9012 88\",\n            \"moneda\" : \"USD\"\n}"
				},
				"url": {
					"raw": "localhost:3000/hack-ibc/v1/users/115/cuentas",
					"host": [
						"localhost"
					],
					"port": "3000",
					"path": [
						"hack-ibc",
						"v1",
						"users",
						"115",
						"cuentas"
					]
				}
			},
			"response": []
		},
		{
			"name": "localhost:3000/hack-ibc/v1/users/115/cuentas/28/movimientos",
			"request": {
				"method": "POST",
				"header": [
					{
						"key": "Content-Type",
						"name": "Content-Type",
						"value": "application/json",
						"type": "text"
					},
					{
						"key": "autorizacion",
						"value": "eyJhbGciOiJIUzI1NiIsInR5cCI6IkpXVCJ9.eyJpZCI6MTE1LCJ1c2VybmFtZSI6InBjYW50ZXJvQHZlcmEuY29tLnV5Iiwicm9sIjoiY3VzdG9tZXIiLCJpYXQiOjE1NDA3NjUzODcsImV4cCI6MTU0MDc4MzM4N30.3Y8NTwT3s2TENmJEFA3vhGM_stuWrf258Ag1wY312BA",
						"type": "text"
					}
				],
				"body": {
					"mode": "raw",
					"raw": "{\n            \"importe\" : 100,\n            \"tipo\" : 1,\n            \"descripcion\": \"Deposito efec.\"\n}"
				},
				"url": {
					"raw": "localhost:3000/hack-ibc/v1/users/115/cuentas/28/movimientos",
					"host": [
						"localhost"
					],
					"port": "3000",
					"path": [
						"hack-ibc",
						"v1",
						"users",
						"115",
						"cuentas",
						"28",
						"movimientos"
					]
				}
			},
			"response": []
		}
	]
}